<?xml version="1.0" encoding="UTF-8"?>
<testng-results skipped="1" failed="0" ignored="0" total="12" passed="11">
  <reporter-output>
  </reporter-output>
  <suite name="Test MD project" duration-ms="56078" started-at="2020-12-17T13:05:28Z" finished-at="2020-12-17T13:06:24Z">
    <groups>
    </groups>
    <test name="Api Test MD" duration-ms="8797" started-at="2020-12-17T13:05:28Z" finished-at="2020-12-17T13:05:37Z">
      <class name="aventus.apiMd.RegistrationApi">
        <test-method status="PASS" signature="UserRegistration()[pri:0, instance:aventus.apiMd.RegistrationApi@7946e1f4]" name="UserRegistration" duration-ms="2843" started-at="2020-12-17T13:05:28Z" finished-at="2020-12-17T13:05:31Z">
          <reporter-output>
          </reporter-output>
        </test-method> <!-- UserRegistration -->
        <test-method status="PASS" signature="PhoneConfirmation()[pri:0, instance:aventus.apiMd.RegistrationApi@7946e1f4]" name="PhoneConfirmation" duration-ms="959" started-at="2020-12-17T13:05:31Z" depends-on-methods="aventus.apiMd.RegistrationApi.UserRegistration" finished-at="2020-12-17T13:05:32Z">
          <reporter-output>
          </reporter-output>
        </test-method> <!-- PhoneConfirmation -->
        <test-method status="PASS" signature="FileUpload()[pri:0, instance:aventus.apiMd.RegistrationApi@7946e1f4]" name="FileUpload" duration-ms="2162" started-at="2020-12-17T13:05:32Z" depends-on-methods="aventus.apiMd.RegistrationApi.PhoneConfirmation" finished-at="2020-12-17T13:05:34Z">
          <reporter-output>
          </reporter-output>
        </test-method> <!-- FileUpload -->
        <test-method status="PASS" signature="UpdateUserInformation()[pri:0, instance:aventus.apiMd.RegistrationApi@7946e1f4]" name="UpdateUserInformation" duration-ms="1082" started-at="2020-12-17T13:05:34Z" depends-on-methods="aventus.apiMd.RegistrationApi.FileUpload" finished-at="2020-12-17T13:05:35Z">
          <reporter-output>
          </reporter-output>
        </test-method> <!-- UpdateUserInformation -->
        <test-method status="PASS" signature="LoanRequest()[pri:0, instance:aventus.apiMd.RegistrationApi@7946e1f4]" name="LoanRequest" duration-ms="1731" started-at="2020-12-17T13:05:35Z" depends-on-methods="aventus.apiMd.RegistrationApi.UpdateUserInformation" finished-at="2020-12-17T13:05:37Z">
          <reporter-output>
          </reporter-output>
        </test-method> <!-- LoanRequest -->
      </class> <!-- aventus.apiMd.RegistrationApi -->
    </test> <!-- Api Test MD -->
    <test name="Web Test MD" duration-ms="47221" started-at="2020-12-17T13:05:37Z" finished-at="2020-12-17T13:06:24Z">
      <class name="aventus.FrontRegistration">
        <test-method status="PASS" signature="Credit7_RegistrationStep1_Test()[pri:0, instance:aventus.FrontRegistration@437da279]" name="Credit7_RegistrationStep1_Test" duration-ms="7168" started-at="2020-12-17T13:05:37Z" finished-at="2020-12-17T13:05:44Z">
          <reporter-output>
          </reporter-output>
        </test-method> <!-- Credit7_RegistrationStep1_Test -->
        <test-method status="PASS" signature="Credit7_RegistrationStep2_Test()[pri:0, instance:aventus.FrontRegistration@437da279]" name="Credit7_RegistrationStep2_Test" duration-ms="2747" started-at="2020-12-17T13:05:44Z" finished-at="2020-12-17T13:05:47Z">
          <reporter-output>
          </reporter-output>
        </test-method> <!-- Credit7_RegistrationStep2_Test -->
        <test-method status="PASS" signature="Credit7_RegistrationStep3_Test()[pri:0, instance:aventus.FrontRegistration@437da279]" name="Credit7_RegistrationStep3_Test" duration-ms="4337" started-at="2020-12-17T13:05:47Z" finished-at="2020-12-17T13:05:51Z">
          <reporter-output>
          </reporter-output>
        </test-method> <!-- Credit7_RegistrationStep3_Test -->
        <test-method status="PASS" signature="Credit7_RegistrationStep4_Test()[pri:0, instance:aventus.FrontRegistration@437da279]" name="Credit7_RegistrationStep4_Test" duration-ms="4345" started-at="2020-12-17T13:05:51Z" finished-at="2020-12-17T13:05:56Z">
          <reporter-output>
          </reporter-output>
        </test-method> <!-- Credit7_RegistrationStep4_Test -->
        <test-method status="PASS" signature="Credit7_RegistrationStep5_Test()[pri:0, instance:aventus.FrontRegistration@437da279]" name="Credit7_RegistrationStep5_Test" duration-ms="2737" started-at="2020-12-17T13:05:56Z" finished-at="2020-12-17T13:05:58Z">
          <reporter-output>
          </reporter-output>
        </test-method> <!-- Credit7_RegistrationStep5_Test -->
        <test-method status="SKIP" signature="Credit7_RegistrationStep6_Test()[pri:0, instance:aventus.FrontRegistration@437da279]" name="Credit7_RegistrationStep6_Test" duration-ms="179" started-at="2020-12-17T13:05:58Z" finished-at="2020-12-17T13:05:59Z">
          <exception class="org.openqa.selenium.NoSuchElementException">
            <message>
              <![CDATA[no such element: Unable to locate element: {"method":"css selector","selector":"#username"}
  (Session info: chrome=87.0.4280.88)
For documentation on this error, please visit: https://www.seleniumhq.org/exceptions/no_such_element.html
Build info: version: '3.141.59', revision: 'e82be7d358', time: '2018-11-14T08:17:03'
System info: host: 'ALIAKSANDRDRYSC', ip: '192.168.43.146', os.name: 'Windows 10', os.arch: 'amd64', os.version: '10.0', java.version: '1.8.0_181'
Driver info: org.openqa.selenium.chrome.ChromeDriver
Capabilities {acceptInsecureCerts: false, browserName: chrome, browserVersion: 87.0.4280.88, chrome: {chromedriverVersion: 87.0.4280.20 (c99e81631faa0..., userDataDir: C:\Users\USER\AppData\Local...}, goog:chromeOptions: {debuggerAddress: localhost:54138}, javascriptEnabled: true, networkConnectionEnabled: false, pageLoadStrategy: normal, platform: WINDOWS, platformName: WINDOWS, proxy: Proxy(), setWindowRect: true, strictFileInteractability: false, timeouts: {implicit: 0, pageLoad: 300000, script: 30000}, unhandledPromptBehavior: dismiss and notify, webauthn:virtualAuthenticators: true}
Session ID: 70abf52a93dbc5e7cbe3b13395b9e30d
*** Element info: {Using=id, value=username}]]>
            </message>
            <full-stacktrace>
              <![CDATA[org.openqa.selenium.NoSuchElementException: no such element: Unable to locate element: {"method":"css selector","selector":"#username"}
  (Session info: chrome=87.0.4280.88)
For documentation on this error, please visit: https://www.seleniumhq.org/exceptions/no_such_element.html
Build info: version: '3.141.59', revision: 'e82be7d358', time: '2018-11-14T08:17:03'
System info: host: 'ALIAKSANDRDRYSC', ip: '192.168.43.146', os.name: 'Windows 10', os.arch: 'amd64', os.version: '10.0', java.version: '1.8.0_181'
Driver info: org.openqa.selenium.chrome.ChromeDriver
Capabilities {acceptInsecureCerts: false, browserName: chrome, browserVersion: 87.0.4280.88, chrome: {chromedriverVersion: 87.0.4280.20 (c99e81631faa0..., userDataDir: C:\Users\USER\AppData\Local...}, goog:chromeOptions: {debuggerAddress: localhost:54138}, javascriptEnabled: true, networkConnectionEnabled: false, pageLoadStrategy: normal, platform: WINDOWS, platformName: WINDOWS, proxy: Proxy(), setWindowRect: true, strictFileInteractability: false, timeouts: {implicit: 0, pageLoad: 300000, script: 30000}, unhandledPromptBehavior: dismiss and notify, webauthn:virtualAuthenticators: true}
Session ID: 70abf52a93dbc5e7cbe3b13395b9e30d
*** Element info: {Using=id, value=username}
at sun.reflect.NativeConstructorAccessorImpl.newInstance0(Native Method)
at sun.reflect.NativeConstructorAccessorImpl.newInstance(NativeConstructorAccessorImpl.java:62)
at sun.reflect.DelegatingConstructorAccessorImpl.newInstance(DelegatingConstructorAccessorImpl.java:45)
at java.lang.reflect.Constructor.newInstance(Constructor.java:423)
at org.openqa.selenium.remote.http.W3CHttpResponseCodec.createException(W3CHttpResponseCodec.java:187)
at org.openqa.selenium.remote.http.W3CHttpResponseCodec.decode(W3CHttpResponseCodec.java:122)
at org.openqa.selenium.remote.http.W3CHttpResponseCodec.decode(W3CHttpResponseCodec.java:49)
at org.openqa.selenium.remote.HttpCommandExecutor.execute(HttpCommandExecutor.java:158)
at org.openqa.selenium.remote.service.DriverCommandExecutor.execute(DriverCommandExecutor.java:83)
at org.openqa.selenium.remote.RemoteWebDriver.execute(RemoteWebDriver.java:552)
at org.openqa.selenium.remote.RemoteWebDriver.findElement(RemoteWebDriver.java:323)
at org.openqa.selenium.remote.RemoteWebDriver.findElementById(RemoteWebDriver.java:372)
at org.openqa.selenium.By$ById.findElement(By.java:188)
at org.openqa.selenium.remote.RemoteWebDriver.findElement(RemoteWebDriver.java:315)
at aventus.agis2.pages.AbstractPage.getElementId(AbstractPage.java:102)
at aventus.webMd.pages.logoAdminPages.LogoAdminPage.setAdminUserName(LogoAdminPage.java:26)
at aventus.webMd.helpers.frontRegHelpers.RegistrationStep6Helper.getCredit7_Step6(RegistrationStep6Helper.java:17)
at aventus.FrontRegistration.Credit7_RegistrationStep6_Test(FrontRegistration.java:54)
at sun.reflect.NativeMethodAccessorImpl.invoke0(Native Method)
at sun.reflect.NativeMethodAccessorImpl.invoke(NativeMethodAccessorImpl.java:62)
at sun.reflect.DelegatingMethodAccessorImpl.invoke(DelegatingMethodAccessorImpl.java:43)
at java.lang.reflect.Method.invoke(Method.java:498)
at org.testng.internal.MethodInvocationHelper.invokeMethod(MethodInvocationHelper.java:124)
at org.testng.internal.Invoker.invokeMethod(Invoker.java:583)
at org.testng.internal.Invoker.invokeTestMethod(Invoker.java:719)
at org.testng.internal.Invoker.invokeTestMethods(Invoker.java:989)
at org.testng.internal.TestMethodWorker.invokeTestMethods(TestMethodWorker.java:125)
at org.testng.internal.TestMethodWorker.run(TestMethodWorker.java:109)
at org.testng.TestRunner.privateRun(TestRunner.java:648)
at org.testng.TestRunner.run(TestRunner.java:505)
at org.testng.SuiteRunner.runTest(SuiteRunner.java:455)
at org.testng.SuiteRunner.runSequentially(SuiteRunner.java:450)
at org.testng.SuiteRunner.privateRun(SuiteRunner.java:415)
at org.testng.SuiteRunner.run(SuiteRunner.java:364)
at org.testng.SuiteRunnerWorker.runSuite(SuiteRunnerWorker.java:52)
at org.testng.SuiteRunnerWorker.run(SuiteRunnerWorker.java:84)
at org.testng.TestNG.runSuitesSequentially(TestNG.java:1208)
at org.testng.TestNG.runSuitesLocally(TestNG.java:1137)
at org.testng.TestNG.runSuites(TestNG.java:1049)
at org.testng.TestNG.run(TestNG.java:1017)
at org.apache.maven.surefire.testng.TestNGExecutor.run(TestNGExecutor.java:283)
at org.apache.maven.surefire.testng.TestNGXmlTestSuite.execute(TestNGXmlTestSuite.java:75)
at org.apache.maven.surefire.testng.TestNGProvider.invoke(TestNGProvider.java:120)
at org.apache.maven.surefire.booter.ForkedBooter.invokeProviderInSameClassLoader(ForkedBooter.java:383)
at org.apache.maven.surefire.booter.ForkedBooter.runSuitesInProcess(ForkedBooter.java:344)
at org.apache.maven.surefire.booter.ForkedBooter.execute(ForkedBooter.java:125)
at org.apache.maven.surefire.booter.ForkedBooter.main(ForkedBooter.java:417)
]]>
            </full-stacktrace>
          </exception> <!-- org.openqa.selenium.NoSuchElementException -->
          <reporter-output>
          </reporter-output>
        </test-method> <!-- Credit7_RegistrationStep6_Test -->
        <test-method status="PASS" signature="Credit7_RegistrationStep6_Test()[pri:0, instance:aventus.FrontRegistration@437da279]" name="Credit7_RegistrationStep6_Test" duration-ms="25705" started-at="2020-12-17T13:05:59Z" finished-at="2020-12-17T13:06:24Z">
          <reporter-output>
          </reporter-output>
        </test-method> <!-- Credit7_RegistrationStep6_Test -->
      </class> <!-- aventus.FrontRegistration -->
    </test> <!-- Web Test MD -->
  </suite> <!-- Test MD project -->
</testng-results>
